<font>
  <info face="font" size="72" bold="0" italic="0" charset="" unicode="" stretchH="100" smooth="1" aa="1" padding="2,2,2,2" spacing="0,0" outline="0"/>
  <common lineHeight="80" base="59" scaleW="1024" scaleH="512" pages="1" packed="0"/>
  <pages>
    <page id="0" file="font.png"/>
  </pages>
  <chars count="95">
    <char id="32" x="2" y="2" width="0" height="0" xoffset="0" yoffset="59" xadvance="20" page="0" chnl="15"/>
    <char id="33" x="2" y="4" width="16" height="59" xoffset="3" yoffset="5" xadvance="20" page="0" chnl="15"/>
    <char id="34" x="2" y="65" width="27" height="26" xoffset="0" yoffset="5" xadvance="26" page="0" chnl="15"/>
    <char id="35" x="20" y="2" width="46" height="61" xoffset="-2" yoffset="4" xadvance="40" page="0" chnl="15"/>
    <char id="36" x="2" y="93" width="42" height="71" xoffset="0" yoffset="0" xadvance="40" page="0" chnl="15"/>
    <char id="37" x="2" y="166" width="63" height="62" xoffset="1" yoffset="4" xadvance="64" page="0" chnl="15"/>
    <char id="38" x="46" y="65" width="50" height="61" xoffset="0" yoffset="4" xadvance="48" page="0" chnl="15"/>
    <char id="39" x="46" y="128" width="15" height="26" xoffset="0" yoffset="5" xadvance="14" page="0" chnl="15"/>
    <char id="40" x="2" y="230" width="24" height="75" xoffset="1" yoffset="4" xadvance="24" page="0" chnl="15"/>
    <char id="41" x="2" y="307" width="25" height="75" xoffset="1" yoffset="4" xadvance="24" page="0" chnl="15"/>
    <char id="42" x="63" y="128" width="30" height="29" xoffset="-1" yoffset="4" xadvance="28" page="0" chnl="15"/>
    <char id="43" x="68" y="2" width="42" height="42" xoffset="1" yoffset="14" xadvance="42" page="0" chnl="15"/>
    <char id="44" x="28" y="230" width="15" height="25" xoffset="3" yoffset="49" xadvance="20" page="0" chnl="15"/>
    <char id="45" x="68" y="46" width="27" height="14" xoffset="-1" yoffset="34" xadvance="24" page="0" chnl="15"/>
    <char id="46" x="97" y="46" width="15" height="15" xoffset="4" yoffset="49" xadvance="20" page="0" chnl="15"/>
    <char id="47" x="2" y="384" width="27" height="61" xoffset="-3" yoffset="4" xadvance="20" page="0" chnl="15"/>
    <char id="48" x="2" y="447" width="41" height="60" xoffset="0" yoffset="5" xadvance="40" page="0" chnl="15"/>
    <char id="49" x="29" y="257" width="27" height="60" xoffset="5" yoffset="5" xadvance="40" page="0" chnl="15"/>
    <char id="50" x="29" y="319" width="42" height="60" xoffset="-1" yoffset="5" xadvance="40" page="0" chnl="15"/>
    <char id="51" x="31" y="381" width="41" height="61" xoffset="0" yoffset="5" xadvance="40" page="0" chnl="15"/>
    <char id="52" x="45" y="444" width="43" height="59" xoffset="-2" yoffset="5" xadvance="40" page="0" chnl="15"/>
    <char id="53" x="58" y="230" width="42" height="60" xoffset="0" yoffset="5" xadvance="40" page="0" chnl="15"/>
    <char id="54" x="67" y="159" width="42" height="60" xoffset="0" yoffset="5" xadvance="40" page="0" chnl="15"/>
    <char id="55" x="73" y="292" width="41" height="59" xoffset="0" yoffset="5" xadvance="40" page="0" chnl="15"/>
    <char id="56" x="102" y="221" width="42" height="60" xoffset="0" yoffset="5" xadvance="40" page="0" chnl="15"/>
    <char id="57" x="74" y="353" width="42" height="60" xoffset="0" yoffset="5" xadvance="40" page="0" chnl="15"/>
    <char id="58" x="116" y="283" width="15" height="45" xoffset="4" yoffset="19" xadvance="20" page="0" chnl="15"/>
    <char id="59" x="98" y="63" width="15" height="55" xoffset="3" yoffset="19" xadvance="20" page="0" chnl="15"/>
    <char id="60" x="112" y="2" width="42" height="42" xoffset="1" yoffset="13" xadvance="42" page="0" chnl="15"/>
    <char id="61" x="95" y="128" width="42" height="29" xoffset="1" yoffset="20" xadvance="42" page="0" chnl="15"/>
    <char id="62" x="111" y="159" width="42" height="42" xoffset="1" yoffset="13" xadvance="42" page="0" chnl="15"/>
    <char id="63" x="115" y="46" width="41" height="60" xoffset="0" yoffset="4" xadvance="40" page="0" chnl="15"/>
    <char id="64" x="90" y="415" width="73" height="75" xoffset="1" yoffset="4" xadvance="73" page="0" chnl="15"/>
    <char id="65" x="118" y="330" width="55" height="59" xoffset="-3" yoffset="5" xadvance="48" page="0" chnl="15"/>
    <char id="66" x="165" y="391" width="47" height="59" xoffset="2" yoffset="5" xadvance="48" page="0" chnl="15"/>
    <char id="67" x="146" y="203" width="53" height="61" xoffset="1" yoffset="4" xadvance="52" page="0" chnl="15"/>
    <char id="68" x="146" y="266" width="50" height="59" xoffset="3" yoffset="5" xadvance="52" page="0" chnl="15"/>
    <char id="69" x="175" y="327" width="46" height="59" xoffset="3" yoffset="5" xadvance="48" page="0" chnl="15"/>
    <char id="70" x="198" y="266" width="42" height="59" xoffset="3" yoffset="5" xadvance="44" page="0" chnl="15"/>
    <char id="71" x="155" y="108" width="56" height="61" xoffset="1" yoffset="4" xadvance="56" page="0" chnl="15"/>
    <char id="72" x="201" y="171" width="48" height="59" xoffset="3" yoffset="5" xadvance="52" page="0" chnl="15"/>
    <char id="73" x="158" y="2" width="15" height="59" xoffset="4" yoffset="5" xadvance="20" page="0" chnl="15"/>
    <char id="74" x="175" y="2" width="36" height="60" xoffset="-1" yoffset="5" xadvance="36" page="0" chnl="15"/>
    <char id="75" x="214" y="388" width="49" height="59" xoffset="2" yoffset="5" xadvance="48" page="0" chnl="15"/>
    <char id="76" x="223" y="327" width="40" height="59" xoffset="2" yoffset="5" xadvance="40" page="0" chnl="15"/>
    <char id="77" x="214" y="449" width="57" height="59" xoffset="2" yoffset="5" xadvance="60" page="0" chnl="15"/>
    <char id="78" x="242" y="232" width="48" height="59" xoffset="2" yoffset="5" xadvance="52" page="0" chnl="15"/>
    <char id="79" x="265" y="293" width="57" height="61" xoffset="0" yoffset="4" xadvance="56" page="0" chnl="15"/>
    <char id="80" x="265" y="356" width="47" height="59" xoffset="3" yoffset="5" xadvance="48" page="0" chnl="15"/>
    <char id="81" x="273" y="417" width="57" height="64" xoffset="0" yoffset="4" xadvance="56" page="0" chnl="15"/>
    <char id="82" x="314" y="356" width="52" height="59" xoffset="3" yoffset="5" xadvance="52" page="0" chnl="15"/>
    <char id="83" x="332" y="417" width="49" height="61" xoffset="0" yoffset="4" xadvance="48" page="0" chnl="15"/>
    <char id="84" x="213" y="2" width="49" height="59" xoffset="-1" yoffset="5" xadvance="44" page="0" chnl="15"/>
    <char id="85" x="213" y="63" width="48" height="60" xoffset="3" yoffset="5" xadvance="52" page="0" chnl="15"/>
    <char id="86" x="251" y="125" width="54" height="59" xoffset="-3" yoffset="5" xadvance="48" page="0" chnl="15"/>
    <char id="87" x="263" y="63" width="73" height="59" xoffset="-2" yoffset="5" xadvance="68" page="0" chnl="15"/>
    <char id="88" x="264" y="2" width="53" height="59" xoffset="-2" yoffset="5" xadvance="48" page="0" chnl="15"/>
    <char id="89" x="319" y="2" width="54" height="59" xoffset="-3" yoffset="5" xadvance="48" page="0" chnl="15"/>
    <char id="90" x="292" y="186" width="48" height="59" xoffset="-2" yoffset="5" xadvance="44" page="0" chnl="15"/>
    <char id="91" x="324" y="247" width="22" height="74" xoffset="2" yoffset="5" xadvance="20" page="0" chnl="15"/>
    <char id="92" x="338" y="63" width="27" height="61" xoffset="-3" yoffset="4" xadvance="20" page="0" chnl="15"/>
    <char id="93" x="342" y="126" width="22" height="74" xoffset="-2" yoffset="5" xadvance="20" page="0" chnl="15"/>
    <char id="94" x="251" y="186" width="37" height="36" xoffset="-1" yoffset="4" xadvance="34" page="0" chnl="15"/>
    <char id="95" x="158" y="64" width="49" height="12" xoffset="-4" yoffset="66" xadvance="40" page="0" chnl="15"/>
    <char id="96" x="115" y="108" width="19" height="18" xoffset="1" yoffset="4" xadvance="24" page="0" chnl="15"/>
    <char id="97" x="165" y="452" width="41" height="47" xoffset="0" yoffset="18" xadvance="40" page="0" chnl="15"/>
    <char id="98" x="348" y="202" width="40" height="60" xoffset="2" yoffset="5" xadvance="40" page="0" chnl="15"/>
    <char id="99" x="366" y="126" width="40" height="47" xoffset="0" yoffset="18" xadvance="36" page="0" chnl="15"/>
    <char id="100" x="367" y="63" width="40" height="60" xoffset="-1" yoffset="5" xadvance="40" page="0" chnl="15"/>
    <char id="101" x="375" y="2" width="42" height="47" xoffset="0" yoffset="18" xadvance="40" page="0" chnl="15"/>
    <char id="102" x="307" y="124" width="29" height="60" xoffset="-2" yoffset="4" xadvance="20" page="0" chnl="15"/>
    <char id="103" x="348" y="264" width="41" height="61" xoffset="-1" yoffset="18" xadvance="40" page="0" chnl="15"/>
    <char id="104" x="390" y="175" width="38" height="59" xoffset="2" yoffset="5" xadvance="40" page="0" chnl="15"/>
    <char id="105" x="368" y="327" width="14" height="59" xoffset="2" yoffset="5" xadvance="16" page="0" chnl="15"/>
    <char id="106" x="409" y="51" width="22" height="75" xoffset="-6" yoffset="5" xadvance="16" page="0" chnl="15"/>
    <char id="107" x="383" y="388" width="38" height="59" xoffset="2" yoffset="5" xadvance="36" page="0" chnl="15"/>
    <char id="108" x="384" y="327" width="14" height="59" xoffset="2" yoffset="5" xadvance="16" page="0" chnl="15"/>
    <char id="109" x="419" y="2" width="58" height="46" xoffset="2" yoffset="18" xadvance="60" page="0" chnl="15"/>
    <char id="110" x="383" y="449" width="38" height="46" xoffset="2" yoffset="18" xadvance="40" page="0" chnl="15"/>
    <char id="111" x="391" y="236" width="43" height="47" xoffset="-1" yoffset="18" xadvance="40" page="0" chnl="15"/>
    <char id="112" x="400" y="285" width="40" height="60" xoffset="2" yoffset="18" xadvance="40" page="0" chnl="15"/>
    <char id="113" x="430" y="128" width="40" height="60" xoffset="0" yoffset="18" xadvance="40" page="0" chnl="15"/>
    <char id="114" x="433" y="50" width="27" height="46" xoffset="2" yoffset="18" xadvance="24" page="0" chnl="15"/>
    <char id="115" x="462" y="50" width="39" height="47" xoffset="-1" yoffset="18" xadvance="36" page="0" chnl="15"/>
    <char id="116" x="436" y="190" width="25" height="58" xoffset="-2" yoffset="7" xadvance="20" page="0" chnl="15"/>
    <char id="117" x="479" y="2" width="38" height="46" xoffset="2" yoffset="19" xadvance="40" page="0" chnl="15"/>
    <char id="118" x="423" y="347" width="41" height="45" xoffset="-2" yoffset="19" xadvance="36" page="0" chnl="15"/>
    <char id="119" x="442" y="250" width="58" height="45" xoffset="-3" yoffset="19" xadvance="52" page="0" chnl="15"/>
    <char id="120" x="442" y="297" width="41" height="45" xoffset="-1" yoffset="19" xadvance="36" page="0" chnl="15"/>
    <char id="121" x="423" y="394" width="41" height="60" xoffset="-2" yoffset="19" xadvance="36" page="0" chnl="15"/>
    <char id="122" x="423" y="456" width="41" height="45" xoffset="-2" yoffset="19" xadvance="36" page="0" chnl="15"/>
    <char id="123" x="472" y="99" width="28" height="75" xoffset="-1" yoffset="4" xadvance="24" page="0" chnl="15"/>
    <char id="124" x="466" y="344" width="13" height="75" xoffset="4" yoffset="4" xadvance="19" page="0" chnl="15"/>
    <char id="125" x="466" y="421" width="28" height="75" xoffset="-1" yoffset="4" xadvance="24" page="0" chnl="15"/>
    <char id="126" x="155" y="171" width="44" height="19" xoffset="0" yoffset="25" xadvance="42" page="0" chnl="15"/>
    <char id="32" x="0" y="0" width="0" height="0" xoffset="0" yoffset="25" xadvance="20" page="0" chnl="15"/>
  </chars>
  <kernings count="97">
    <kerning first="32" second="65" amount="-4"/>
    <kerning first="32" second="84" amount="-1"/>
    <kerning first="32" second="89" amount="-1"/>
    <kerning first="49" second="49" amount="-5"/>
    <kerning first="65" second="32" amount="-4"/>
    <kerning first="65" second="84" amount="-5"/>
    <kerning first="65" second="86" amount="-5"/>
    <kerning first="65" second="87" amount="-3"/>
    <kerning first="65" second="89" amount="-5"/>
    <kerning first="65" second="118" amount="-1"/>
    <kerning first="65" second="119" amount="-1"/>
    <kerning first="65" second="121" amount="-1"/>
    <kerning first="70" second="44" amount="-8"/>
    <kerning first="70" second="46" amount="-8"/>
    <kerning first="70" second="65" amount="-4"/>
    <kerning first="76" second="32" amount="-3"/>
    <kerning first="76" second="84" amount="-5"/>
    <kerning first="76" second="86" amount="-5"/>
    <kerning first="76" second="87" amount="-5"/>
    <kerning first="76" second="89" amount="-5"/>
    <kerning first="76" second="121" amount="-3"/>
    <kerning first="80" second="32" amount="-1"/>
    <kerning first="80" second="44" amount="-9"/>
    <kerning first="80" second="46" amount="-9"/>
    <kerning first="80" second="65" amount="-5"/>
    <kerning first="82" second="84" amount="-1"/>
    <kerning first="82" second="86" amount="-1"/>
    <kerning first="82" second="87" amount="-1"/>
    <kerning first="82" second="89" amount="-1"/>
    <kerning first="84" second="32" amount="-1"/>
    <kerning first="84" second="44" amount="-8"/>
    <kerning first="84" second="45" amount="-4"/>
    <kerning first="84" second="46" amount="-8"/>
    <kerning first="84" second="58" amount="-8"/>
    <kerning first="84" second="59" amount="-8"/>
    <kerning first="84" second="65" amount="-5"/>
    <kerning first="84" second="79" amount="-1"/>
    <kerning first="84" second="97" amount="-8"/>
    <kerning first="84" second="99" amount="-8"/>
    <kerning first="84" second="101" amount="-8"/>
    <kerning first="84" second="105" amount="-3"/>
    <kerning first="84" second="111" amount="-8"/>
    <kerning first="84" second="114" amount="-3"/>
    <kerning first="84" second="115" amount="-8"/>
    <kerning first="84" second="117" amount="-3"/>
    <kerning first="84" second="119" amount="-4"/>
    <kerning first="84" second="121" amount="-4"/>
    <kerning first="86" second="44" amount="-7"/>
    <kerning first="86" second="45" amount="-4"/>
    <kerning first="86" second="46" amount="-7"/>
    <kerning first="86" second="58" amount="-3"/>
    <kerning first="86" second="59" amount="-3"/>
    <kerning first="86" second="65" amount="-5"/>
    <kerning first="86" second="97" amount="-5"/>
    <kerning first="86" second="101" amount="-4"/>
    <kerning first="86" second="105" amount="-1"/>
    <kerning first="86" second="111" amount="-4"/>
    <kerning first="86" second="114" amount="-3"/>
    <kerning first="86" second="117" amount="-3"/>
    <kerning first="86" second="121" amount="-3"/>
    <kerning first="87" second="44" amount="-4"/>
    <kerning first="87" second="45" amount="-1"/>
    <kerning first="87" second="46" amount="-4"/>
    <kerning first="87" second="58" amount="-1"/>
    <kerning first="87" second="59" amount="-1"/>
    <kerning first="87" second="65" amount="-3"/>
    <kerning first="87" second="97" amount="-3"/>
    <kerning first="87" second="101" amount="-1"/>
    <kerning first="87" second="105" amount="0"/>
    <kerning first="87" second="111" amount="-1"/>
    <kerning first="87" second="114" amount="-1"/>
    <kerning first="87" second="117" amount="-1"/>
    <kerning first="87" second="121" amount="-1"/>
    <kerning first="89" second="32" amount="-1"/>
    <kerning first="89" second="44" amount="-9"/>
    <kerning first="89" second="45" amount="-7"/>
    <kerning first="89" second="46" amount="-9"/>
    <kerning first="89" second="58" amount="-4"/>
    <kerning first="89" second="59" amount="-5"/>
    <kerning first="89" second="65" amount="-5"/>
    <kerning first="89" second="97" amount="-5"/>
    <kerning first="89" second="101" amount="-7"/>
    <kerning first="89" second="105" amount="-3"/>
    <kerning first="89" second="111" amount="-7"/>
    <kerning first="89" second="112" amount="-5"/>
    <kerning first="89" second="113" amount="-7"/>
    <kerning first="89" second="117" amount="-4"/>
    <kerning first="89" second="118" amount="-4"/>
    <kerning first="102" second="102" amount="-1"/>
    <kerning first="114" second="44" amount="-4"/>
    <kerning first="114" second="46" amount="-4"/>
    <kerning first="118" second="44" amount="-5"/>
    <kerning first="118" second="46" amount="-5"/>
    <kerning first="119" second="44" amount="-4"/>
    <kerning first="119" second="46" amount="-4"/>
    <kerning first="121" second="44" amount="-5"/>
    <kerning first="121" second="46" amount="-5"/>
  </kernings>
</font>